INDEX VERSION 1.131+C:\Users\Jakub\eclipse-workspace\Maven-Project\spring_mvc_for_begginers\.metadata\.plugins\org.eclipse.jdt.core
1031062034.index
1260374096.index
2483765885.index
2997081707.index
493040035.index
4169219086.index
3023681961.index
685495921.index
4165848777.index
2866154576.index
3305734410.index
662129271.index
3816164716.index
3028879811.index
1297580988.index
2920302435.index
1901452023.index
2873934814.index
1927192158.index
